Assignment,Transcript link
Assignment 1,https://docs.google.com/document/d/1DEDzWgvYsLp-57yQZ2-NHrz8WoJpn-DxT-jvD6583do/edit?usp=sharing
Assignment 2,https://docs.google.com/document/d/1iuy81OEY8KfOyatTMa7vR5nywPsreeFXNYFMWYrXIEY/edit?usp=sharing
Assignment 3,https://docs.google.com/document/d/1VsTqKL5EJXxWlq-IipMkibCac6C7YyfSDTbJHduV4aU/edit?usp=sharing
Assignment 4,https://docs.google.com/document/d/1qGKo2rV_YuP1XD2OtrBl83PFUbJ9FA-GEfvKpta284A/edit?usp=sharing